Tutorial 0b: Introduction to the Tidyverse
…
Amazing, right?

Tip: Always remember to upgroup your data after youre finished performing operations on the groups. Forgetting that your data is still grouped can cause major headaches while performing data analysis! If youre not sure if the data is grouped, just ungroup! (Theres no harm in calling ungroup too often.)

pharmacoData %>%
    group_by(cellLine, drug, study) %>%
    mutate(viability = viability / max(viability) * 100) %>%
    ungroup()

## # A tibble: 43,427 x 7
##    cellLine drug    doseID concentration viability study logConcentration
##    <chr>    <chr>   <chr>          <dbl>     <dbl> <chr>            <dbl>
##  1 22RV1    17-AAG  doses1        0.0025      94.2 CCLE            -8.64 
##  2 22RV1    17-AAG  doses2        0.008       86.1 CCLE            -6.97 
##  3 22RV1    17-AAG  doses3        0.025      100   CCLE            -5.32 
##  4 22RV1    17-AAG  doses4        0.08        85.1 CCLE            -3.64 
##  5 22RV1    17-AAG  doses5        0.25        62.0 CCLE            -2    
##  6 22RV1    17-AAG  doses6        0.8         29.0 CCLE            -0.322
##  7 22RV1    17-AAG  doses7        2.53        26.0 CCLE             1.34 
##  8 22RV1    17-AAG  doses8        8           20.0 CCLE             3    
##  9 22RV1    AZD6244 doses1        0.0025     100   CCLE            -8.64 
## 10 22RV1    AZD6244 doses2        0.008       80.3 CCLE            -6.97 
## #  with 43,417 more rows
…
