Tutorial 1b: Exploring Replicability with the summarizedPharmacoData Dataset
…
Next, well visualize the correlations the IC50 measurements in a grouped bar plot. To do this, well first have the reshape the data using the gather function from the tidyverse.

## with the tidyverse
drugCorrs <- gather(drugCorrs, measure, correlation, -drug)

drugCorrs

## # A tibble: 30 x 3
##    drug       measure      correlation
##    <chr>      <chr>              <dbl>
##  1 17-AAG     Pearson_ic50      0.543 
##  2 AZD0530    Pearson_ic50      0.455 
##  3 AZD6244    Pearson_ic50      0.320 
##  4 Crizotinib Pearson_ic50      0.409 
##  5 Erlotinib  Pearson_ic50      0.0812
##  6 lapatinib  Pearson_ic50      0.427 
##  7 Nilotinib  Pearson_ic50      0.611 
##  8 Nutlin-3   Pearson_ic50      0.143 
##  9 paclitaxel Pearson_ic50      0.211 
## 10 PD-0325901 Pearson_ic50      0.625 
## #  with 20 more rows
…
